{
  "project_info": {
    "project_number": "438112277874",
    "firebase_url": "https://agendafirebase-673e7.firebaseio.com",
    "project_id": "agendafirebase-673e7",
    "storage_bucket": "agendafirebase-673e7.appspot.com"
  },
  "client": [
    {
      "client_info": {
        "mobilesdk_app_id": "1:438112277874:android:c510f3d070124a7c9139eb",
        "android_client_info": {
          "package_name": "com.example.agendafirebase_1"
        }
      },
      "oauth_client": [
        {
          "client_id": "438112277874-35kos8hdn8nhfmki7blflvll9humjinp.apps.googleusercontent.com",
          "client_type": 1,
          "android_info": {
            "package_name": "com.example.agendafirebase_1",
            "certificate_hash": "9ee2b3e6773ddd2e7a9910aa9333f22b0c431828"
          }
        },
        {
          "client_id": "438112277874-an006nennnff62lkp259g9qt0ssj8m37.apps.googleusercontent.com",
          "client_type": 3
        }
      ],
      "api_key": [
        {
          "current_key": "AIzaSyAQj6DBFHOtlJXu4tiXN2LiCXqCQ34SZPY"
        }
      ],
      "services": {
        "appinvite_service": {
          "other_platform_oauth_client": [
            {
              "client_id": "438112277874-an006nennnff62lkp259g9qt0ssj8m37.apps.googleusercontent.com",
              "client_type": 3
            }
          ]
        }
      }
    }
  ],
  "configuration_version": "1"
}